Tidy Finance - Tidy Market Microstructure
…
We read the data as a tibble using the (very fast) function read_csv. The call lazy_dt converts the tibble to a lazy data.table object. Lazy means that all following commands are not executed immediately but translated to data.table syntax first and then executed at a final stage. As a result, there should be almost no difference in execution time of the code in tidyverse syntax versus the data.table implementation.

tv_quotes <- read_csv(quotes_url, col_types = list(`Exch Time` = col_character()))

tv_quotes <- lazy_dt(tv_quotes)

The raw data looks as follows.

tv_quotes

Source: local data table [263,973 x 10]
Call:   `_DT1`

  `#RIC` Domain    `Date-Time`         `GMT Offset` Type  `Bid Price`
  <chr>  <chr>     <dttm>                     <dbl> <chr>       <dbl>
1 PRU.L  Market P… 2021-06-07 04:00:03            1 Quote        1450
2 PRU.L  Market P… 2021-06-07 06:50:00            1 Quote        1450
3 PRU.L  Market P… 2021-06-07 06:50:00            1 Quote        1450
4 PRU.L  Market P… 2021-06-07 06:50:00            1 Quote        1450
5 PRU.L  Market P… 2021-06-07 06:50:00            1 Quote        1450
6 PRU.L  Market P… 2021-06-07 06:50:05            1 Quote        1450
# ℹ 263,967 more rows
# ℹ 4 more variables: `Bid Size` <dbl>, `Ask Price` <dbl>,
#   `Ask Size` <dbl>, `Exch Time` <chr>
…
data.table
dtplyr

# Output an overview of the EBBO nominal quoted bid-ask spread 
table(quotes_ebbo$best_ask_price - quotes_ebbo$best_bid_price)

    -1   -0.5      0    0.5      1    1.5      2    2.5    3.5 
     2    127   6367 104351 103265   4668    637     51      1 

tv_quotes_ebbo |> 
  transmute(ebbo_nominal_spread = best_ask_price - best_bid_price) |>
  count(ebbo_nominal_spread) |> 
  as_tibble()

# A tibble: 9 × 2
  ebbo_nominal_spread      n
                <dbl>  <int>
1                -1        2
2                -0.5    127
3                 0     6367
4                 0.5 104351
5                 1   103265
# ℹ 4 more rows
…
Finally, we remove the columns Domain and Type.

trades[, c("Domain", "Type") := NULL]

tv_trades <- read_csv(trades_url, col_types = list(`Exch Time` = col_character()))

tv_trades <- lazy_dt(tv_trades)

The raw data looks as follows.

tv_trades

Source: local data table [34,517 x 9]
Call:   `_DT17`

  `#RIC` Domain   `Date-Time`         `GMT Offset` Type  Price Volume
  <chr>  <chr>    <dttm>                     <dbl> <chr> <dbl>  <dbl>
1 PRU.L  Market … 2021-06-07 07:00:09            1 Trade 1482.  11379
2 PRU.L  Market … 2021-06-07 07:00:12            1 Trade 1478.    703
3 PRU.L  Market … 2021-06-07 07:00:12            1 Trade 1478.    327
4 PRU.L  Market … 2021-06-07 07:00:12            1 Trade 1478.    650
5 PRU.L  Market … 2021-06-07 07:00:12            1 Trade 1478     327
6 PRU.L  Market … 2021-06-07 07:00:12            1 Trade 1478     201
# ℹ 34,511 more rows
# ℹ 2 more variables: `Exch Time` <chr>, `MMT Classification` <chr>
…
     FALSE  TRUE
  12 27737     0
  32  3383     0
  3U   114     0
  45  1221    28
  46     0    41
  47  1023   236
  5U    88     0

tv_trades |>
  mutate(message = str_extract(mmt, "^.{2}")) |>
  mutate(small_price = price < 100) |>
  count(message, small_price)

Source: local data table [10 x 3]
Call:   copy(`_DT18`)[, `:=`(message = str_extract(mmt, "^.{2}"))][, 
    `:=`(small_price = price < 100)][, .(n = .N), keyby = .(message, 
    small_price)]

  message small_price     n
  <chr>   <lgl>       <int>
1 12      FALSE       27737
2 32      FALSE        3383
3 3U      FALSE         114
4 45      NA              4
5 45      FALSE        1221
6 45      TRUE           28
# ℹ 4 more rows
…
