…
## Download data

Let’s start by loading the package

``` r
library(tidyfinance)
```

The main function is `download_data(type, start_date, end_date)` with supported type:

``` r
list_supported_types()
```

    # A tibble: 20 × 3
      type                  dataset_name                   domain  
      <chr>                 <chr>                          <chr>   
    1 factors_q5_daily      q5_factors_daily_2022.csv      Global Q
    2 factors_q5_weekly     q5_factors_weekly_2022.csv     Global Q
    3 factors_q5_weekly_w2w q5_factors_weekly_w2w_2022.csv Global Q
    4 factors_q5_monthly    q5_factors_monthly_2022.csv    Global Q
    5 factors_q5_quarterly  q5_factors_quarterly_2022.csv  Global Q
    # ℹ 15 more rows

So, for instance, if you want to download monthly Fama-French Three-Factor data, you can call:

``` r
download_data("factors_ff3_monthly", "2020-01-01", "2020-12-31")
```

    # A tibble: 12 × 5
      date       risk_free mkt_excess     smb     hml
      <date>         <dbl>      <dbl>   <dbl>   <dbl>
    1 2020-01-01    0.0013    -0.0011 -0.0311 -0.0625
    2 2020-02-01    0.0012    -0.0813  0.0107 -0.0381
    3 2020-03-01    0.0013    -0.134  -0.0483 -0.139 
    4 2020-04-01    0          0.136   0.0245 -0.0133
    5 2020-05-01    0.0001     0.0558  0.0247 -0.0488
    # ℹ 7 more rows

Under the hood, the function uses the `frenchdata` package (see its documentation [here](https://cran.r-project.org/web/packages/frenchdata/index.html)) and applies some cleaning steps, as in TFWR. If you haven’t installed `frenchdata` yet, you’ll get prompted to install it first before you can download this specific data type.

You can also access q-Factor data in this way, by calling:

``` r
download_data("factors_q5_daily", "2020-01-01", "2020-12-31")
```

    # A tibble: 253 × 7
      date       risk_free mkt_excess       me       ia      roe       eg
      <date>         <dbl>      <dbl>    <dbl>    <dbl>    <dbl>    <dbl>
    1 2020-01-02  0.000055    0.00863 -0.0112  -0.00171  6.84e-4  3.41e-3
    2 2020-01-03  0.000055   -0.00673  0.00234 -0.00193 -1.55e-3  6.83e-4
    3 2020-01-06  0.000055    0.00360 -0.00360 -0.00409 -4.78e-3  6.11e-4
    4 2020-01-07  0.000055   -0.00192 -0.00139 -0.00322 -5.12e-3 -2.74e-3
    5 2020-01-08  0.000055    0.00467 -0.00108 -0.00121  4.56e-3  6.14e-3
    # ℹ 248 more rows
…
We discuss winsorization in TFWR, so we figured providing this function could be useful:

``` r
library(tibble)
library(dplyr)

set.seed(123)
data <- tibble(x = rnorm(100)) |> 
  arrange(x)

data |> 
  mutate(x_winsorized = winsorize(x, 0.01))
```

    # A tibble: 100 × 2
          x x_winsorized
      <dbl>        <dbl>
    1 -2.31        -1.97
    2 -1.97        -1.97
    3 -1.69        -1.69
    4 -1.55        -1.55
    5 -1.27        -1.27
    # ℹ 95 more rows

If you rather want to replace the bottom and top quantiles of your distribution with missing values, then you can use `trim()`

``` r
data |> 
  mutate(x_trimmed = trim(x, 0.01))
```

    # A tibble: 100 × 2
          x x_trimmed
      <dbl>     <dbl>
    1 -2.31     NA   
    2 -1.97     -1.97
    3 -1.69     -1.69
    4 -1.55     -1.55
    5 -1.27     -1.27
    # ℹ 95 more rows
…
``` r
data <- tibble(
  id = 1:100,
  exchange = sample(c("NYSE", "NASDAQ"), 100, replace = TRUE),
  market_cap = runif(100, 1e6, 1e9)
)

data |> 
  mutate(
    portfolio = assign_portfolio(
      pick(everything()), "market_cap", n_portfolios = 5, exchanges = c("NYSE"))
  )
```

    # A tibble: 100 × 4
         id exchange market_cap portfolio
      <int> <chr>         <dbl>     <int>
    1     1 NASDAQ   784790691.         4
    2     2 NASDAQ    10420475.         1
    3     3 NASDAQ   779286817.         4
    4     4 NYSE     729661261.         4
    5     5 NASDAQ   630501721.         3
    # ℹ 95 more rows
…
