Tidy Finance - Using DuckDB with WRDS Data
…
   user  system elapsed 
 208.87    2.75  280.47 

Once the data are in memory, it is relatively quick to run a summary query.

crsp_daily_local |> 
  group_by(month) |> 
  summarize(ret = mean(ret_excess, na.rm = TRUE)) |> 
  collect() |> 
  system_time()

   user  system elapsed 
   4.79    1.18    8.08 

# A tibble: 744 × 2
  month            ret
  <date>         <dbl>
1 1960-01-01 -0.00213 
2 1960-02-01  0.000325
3 1960-03-01 -0.00115 
4 1960-04-01 -0.00106 
5 1960-05-01  0.00114 
# ℹ 739 more rows
…
dbplyr with SQLite

Things are faster with SQLite, though there’s no obvious way to split the time between reading the data and performing the aggregation. Note that we have a collect() at the end. This will not take a noticeable amount of time, but seems to be a reasonable step if our plan is to analyse the aggregated data in R.

crsp_daily |> 
  group_by(month) |> 
  summarize(ret = mean(ret_excess, na.rm = TRUE)) |> 
  collect() |>
  system_time()

   user  system elapsed 
   38.6    11.0    63.5 

# A tibble: 744 × 2
  month            ret
  <date>         <dbl>
1 1960-01-01 -0.00213 
2 1960-02-01  0.000325
3 1960-03-01 -0.00115 
4 1960-04-01 -0.00106 
5 1960-05-01  0.00114 
# ℹ 739 more rows
…
crsp_daily <- tbl(tidy_finance, "crsp_daily")

crsp_daily |> 
  group_by(month) |> 
  summarize(ret = mean(ret_excess, na.rm = TRUE)) |> 
  collect() |>
  system_time()

   user  system elapsed 
   0.51    0.11    0.50 

# A tibble: 744 × 2
  month           ret
  <date>        <dbl>
1 1991-12-01 0.00237 
2 1992-05-01 0.000740
3 1993-01-01 0.00413 
4 1993-05-01 0.00265 
5 2010-10-01 0.00198 
# ℹ 739 more rows

Having done our benchmarks, we can take a quick peek at the data.

crsp_daily |> 
  group_by(month) |> 
  summarize(ret = mean(ret_excess, na.rm = TRUE)) |> 
  arrange(month) |>
  collect()

# A tibble: 744 × 2
  month            ret
  <date>         <dbl>
1 1960-01-01 -0.00213 
2 1960-02-01  0.000325
3 1960-03-01 -0.00115 
4 1960-04-01 -0.00106 
5 1960-05-01  0.00114 
# ℹ 739 more rows
…
Let’s do the benchmark using the parquet data.

db <- dbConnect(duckdb::duckdb())
crsp_daily <- tbl(db, "read_parquet('data/crsp_daily.parquet')")

crsp_daily |> 
  group_by(month) |> 
  summarize(ret = mean(ret_excess, na.rm = TRUE)) |> 
  collect() |>
  system_time()

   user  system elapsed 
   1.63    0.73    0.51 

# A tibble: 744 × 2
  month            ret
  <date>         <dbl>
1 1970-01-01 -0.00210 
2 1971-05-01 -0.00262 
3 1973-02-01 -0.00415 
4 1973-11-01 -0.00927 
5 1967-05-01 -0.000372
# ℹ 739 more rows
…
Let’s do one more benchmark using the parquet data with the arrow library.

crsp_daily <- open_dataset("data/crsp_daily.parquet")

crsp_daily |> 
  group_by(month) |> 
  summarize(ret = mean(ret_excess, na.rm = TRUE)) |> 
  collect() |>
  system_time()

   user  system elapsed 
   0.25    0.01    0.76 

# A tibble: 744 × 2
  month            ret
  <date>         <dbl>
1 1989-01-01  0.00285 
2 1986-06-01  0.000194
3 1986-07-01 -0.00352 
4 1986-08-01  0.00115 
5 1986-09-01 -0.00279 
# ℹ 739 more rows
…
