…
``` r
download_data(
  domain = "tidyfinance",
  dataset = "high_frequency_sp500",
  start_date = "2020-01-01",
  end_date = "2020-01-15"
)
```

    # A tibble: 46,800 × 9
      ts                  midquote signed_volume trading_volume
      <dttm>                 <dbl>         <dbl>          <dbl>
    1 2020-01-02 09:30:05     324.             0       5160652.
    2 2020-01-02 09:30:10     324.             0       1748767.
    3 2020-01-02 09:30:15     324.             0       2429054.
    4 2020-01-02 09:30:20     324.             0       3548350.
    5 2020-01-02 09:30:25     324.             0      16407684.
    # ℹ 46,795 more rows
    # ℹ 5 more variables: depth0_ask <dbl>, depth0_bid <dbl>,
    #   depth5_ask <dbl>, depth5_bid <dbl>, spread <dbl>
…
