Beta Estimation – Tidy Finance
…
Because roll_capm_estimation() groups by permno internally, we do not have to loop over stocks or nest the data. We simply restrict the sample to the example stocks and hand the entire frame to the function, which returns a tidy data frame with a time series of beta estimates for each stock.

R
Python

capm_examples <- crsp_monthly |>
  filter(permno %in% examples$permno) |>
  roll_capm_estimation()
capm_examples

# A tibble: 3,114 × 5
  permno date       coefficient estimate t_statistic
   <dbl> <date>     <chr>          <dbl>       <dbl>
1  10107 1990-03-01 alpha         0.0417        2.31
2  10107 1990-03-01 mkt_excess    1.40          4.17
3  10107 1990-04-01 alpha         0.0427        2.41
4  10107 1990-04-01 mkt_excess    1.39          4.20
5  10107 1990-05-01 alpha         0.0443        2.53
# ℹ 3,109 more rows
…
