…
## R

Next, we want to apply the `roll_capm_estimation()` function to each stock. This situation is an ideal use case for `map()`, which takes a list or vector as input and returns an object of the same length as the input. In our case, `map()` returns a single data frame with a time series of beta estimates for each stock. Therefore, we use `unnest()` to transform the list of outputs to a tidy data frame.

``` r
capm_examples <- capm_examples_nested |>
  mutate(capm = map(data, roll_capm_estimation)) |>
  unnest(capm) |>
  select(permno, date, coefficient, estimate, t_statistic)
capm_examples
```

    # A tibble: 3,114 × 5
      permno date       coefficient estimate t_statistic
       <dbl> <date>     <chr>          <dbl>       <dbl>
    1  10107 1990-03-01 alpha         0.0417        2.31
    2  10107 1990-03-01 mkt_excess    1.40          4.17
    3  10107 1990-04-01 alpha         0.0427        2.41
    4  10107 1990-04-01 mkt_excess    1.39          4.20
    5  10107 1990-05-01 alpha         0.0443        2.53
    # ℹ 3,109 more rows
…
