The Capital Asset Pricing Model – Tidy Finance
…
Instead of writing the regression helper ourselves, we could rely on the estimate_model() function from the tidyfinance package, which returns the coefficients and, via its output argument, the corresponding t-statistics:

returns_excess_monthly |>
  nest(data = -symbol) |>
  mutate(capm = map(
    data,
    \(x) estimate_model(x, "ret_excess ~ mkt_excess", output = c("coefficients", "tstats"))
  ))

# A tibble: 28 × 3
# Groups:   symbol [28]
  symbol data               capm            
  <chr>  <list>             <list>          
1 AAPL   <tibble [299 × 3]> <named list [2]>
2 AMGN   <tibble [299 × 3]> <named list [2]>
3 AMZN   <tibble [299 × 3]> <named list [2]>
4 AXP    <tibble [299 × 3]> <named list [2]>
5 BA     <tibble [299 × 3]> <named list [2]>
# ℹ 23 more rows
…
