Working with Stock Returns – Tidy Finance
…
Warning: download_data(domain = "stock_prices") was deprecated in tidyfinance
0.6.1.
ℹ Please use download_data(domain = "Stock Prices") instead.
ℹ The deprecated feature was likely used in the tidyfinance package.
  Please report the issue at
  <https://github.com/tidy-finance/r-tidyfinance/issues>.

prices

# A tibble: 6,288 × 8
  symbol date          volume  open   low  high close adjusted_close
  <chr>  <date>         <dbl> <dbl> <dbl> <dbl> <dbl>          <dbl>
1 AAPL   2000-01-03 535796800 0.936 0.908 1.00  0.999          0.838
2 AAPL   2000-01-04 512377600 0.967 0.903 0.988 0.915          0.767
3 AAPL   2000-01-05 778321600 0.926 0.920 0.987 0.929          0.778
4 AAPL   2000-01-06 767972800 0.948 0.848 0.955 0.848          0.711
5 AAPL   2000-01-07 460734400 0.862 0.853 0.902 0.888          0.745
# ℹ 6,283 more rows
…
Instead of analyzing prices, we compute daily returns defined as \(r_t = p_t / p_{t-1} - 1\), where \(p_t\) is the adjusted price at the end of day \(t\). In that context, computing the previous value (the lag) is helpful.

R
Python

The function lag() returns the previous value.

returns <- prices |>
  arrange(date) |>
  mutate(ret = adjusted_close / lag(adjusted_close) - 1) |>
  select(symbol, date, ret)
returns

# A tibble: 6,288 × 3
  symbol date           ret
  <chr>  <date>       <dbl>
1 AAPL   2000-01-03 NA     
2 AAPL   2000-01-04 -0.0843
3 AAPL   2000-01-05  0.0146
4 AAPL   2000-01-06 -0.0865
5 AAPL   2000-01-07  0.0474
# ℹ 6,283 more rows
…
symbols <- download_data(
  domain = "constituents",
  index = "Dow Jones Industrial Average"
)

Warning: download_data(domain = "constituents") was deprecated in tidyfinance
0.6.1.
ℹ Please use download_data(domain = "Index Constituents") instead.
ℹ The deprecated feature was likely used in the tidyfinance package.
  Please report the issue at
  <https://github.com/tidy-finance/r-tidyfinance/issues>.

symbols

# A tibble: 30 × 5
  symbol name                    location           exchange currency
  <chr>  <chr>                   <chr>              <chr>    <chr>   
1 GS     GOLDMAN SACHS GROUP INC Vereinigte Staaten New Yor… USD     
2 CAT    CATERPILLAR INC         Vereinigte Staaten New Yor… USD     
3 UNH    UNITEDHEALTH GROUP INC  Vereinigte Staaten New Yor… USD     
4 MSFT   MICROSOFT CORP          Vereinigte Staaten NASDAQ   USD     
5 AMGN   AMGEN INC               Vereinigte Staaten NASDAQ   USD     
# ℹ 25 more rows
…
