…
## R

In case this is the first time you use the package `tidyfinance`, you may be asked once to install some additional packages in the process of downloading the data. If you do not know how to use it, make sure you read the help file by calling `?download_data`. We especially recommend taking a look at the examples section of the documentation.

``` r
prices <- download_data(
  domain = "stock_prices",
  symbols = "AAPL",
  start_date = "2000-01-01",
  end_date = "2024-12-31"
)
prices
```

    # A tibble: 6,288 × 8
      symbol date          volume  open   low  high close adjusted_close
      <chr>  <date>         <dbl> <dbl> <dbl> <dbl> <dbl>          <dbl>
    1 AAPL   2000-01-03 535796800 0.936 0.908 1.00  0.999          0.838
    2 AAPL   2000-01-04 512377600 0.967 0.903 0.988 0.915          0.767
    3 AAPL   2000-01-05 778321600 0.926 0.920 0.987 0.929          0.778
    4 AAPL   2000-01-06 767972800 0.948 0.848 0.955 0.848          0.711
    5 AAPL   2000-01-07 460734400 0.862 0.853 0.902 0.888          0.745
    # ℹ 6,283 more rows
…
Instead of analyzing prices, we compute daily returns defined as \\r_t = p_t / p\_{t-1} - 1\\, where \\p_t\\ is the adjusted price at the end of day \\t\\. In that context, computing the previous value (the lag) is helpful.

## R

The function `lag()` returns the previous value.

``` r
returns <- prices |>
  arrange(date) |>
  mutate(ret = adjusted_close / lag(adjusted_close) - 1) |>
  select(symbol, date, ret)
returns
```

    # A tibble: 6,288 × 3
      symbol date           ret
      <chr>  <date>       <dbl>
    1 AAPL   2000-01-03 NA     
    2 AAPL   2000-01-04 -0.0843
    3 AAPL   2000-01-05  0.0146
    4 AAPL   2000-01-06 -0.0865
    5 AAPL   2000-01-07  0.0474
    # ℹ 6,283 more rows
…
This is where the `tidyverse` magic starts: Tidy data makes it extremely easy to generalize the computations from before to as many assets or groups as you like. The following code takes any number of symbols and automates the download as well as the plot of the price time series. In the end, we create the table of summary statistics for all assets at once. For this example, we analyze data from all current constituents of the [Dow Jones Industrial Average index.](https://en.wikipedia.org/wiki/Dow_Jones_Industrial_Average)

We first download a table with Dow Jones constituents again using `download_data()`, but this time with `domain = "constituents"`.

## R

``` r
symbols <- download_data(
  domain = "constituents",
  index = "Dow Jones Industrial Average"
)
symbols
```

    # A tibble: 30 × 5
      symbol name                    location           exchange currency
      <chr>  <chr>                   <chr>              <chr>    <chr>   
    1 GS     GOLDMAN SACHS GROUP INC Vereinigte Staaten New Yor… USD     
    2 CAT    CATERPILLAR INC         Vereinigte Staaten New Yor… USD     
    3 UNH    UNITEDHEALTH GROUP INC  Vereinigte Staaten New Yor… USD     
    4 MSFT   MICROSOFT CORP          Vereinigte Staaten NASDAQ   USD     
    5 AMGN   AMGEN INC               Vereinigte Staaten NASDAQ   USD     
    # ℹ 25 more rows
…
