…
If we want to have the whole table in memory, we need to `collect()` it. You will see that we regularly load the data into the memory in the next chapters.


```r
factors_ff_monthly_db %>%
  select(month, rf) %>%
  collect()
```

```
## # A tibble: 732 x 2
##   month          rf
##   <date>      <dbl>
## 1 1960-01-01 0.0033
## 2 1960-02-01 0.0029
## 3 1960-03-01 0.0035
## 4 1960-04-01 0.0019
## 5 1960-05-01 0.0027
## # ... with 727 more rows
```
…
## First glimpse of the CRSP sample

Before we move on to other data sources, let us look at some descriptive statistics of the CRSP sample which is our main source for stock returns. 


```r
crsp_monthly
```

```
## # A tibble: 3,225,161 x 13
##   permno date       month           ret  shrout altprc exchcd siccd mktcap
##    <dbl> <date>     <date>        <dbl>   <dbl>  <dbl>  <dbl> <dbl>  <dbl>
## 1  10000 1986-02-28 1986-02-01 -0.257   3680000  -3.25      3  3990   12.0
## 2  10000 1986-03-31 1986-03-01  0.365   3680000  -4.44      3  3990   16.3
## 3  10000 1986-04-30 1986-04-01 -0.0986  3793000  -4         3  3990   15.2
## 4  10000 1986-05-30 1986-05-01 -0.223   3793000  -3.11      3  3990   11.8
## 5  10000 1986-06-30 1986-06-01 -0.00503 3793000  -3.09      3  3990   11.7
## # ... with 3,225,156 more rows, and 4 more variables: mktcap_lag <dbl>,
## #   exchange <chr>, industry <chr>, ret_excess <dbl>
```
…
```r
ccmxpf_linktable <- ccmxpf_linktable_db %>%
  filter(linktype %in% c("LU", "LC") &
    linkprim %in% c("P", "C") &
    usedflag == 1) %>%
  select(permno = lpermno, gvkey, linkdt, linkenddt) %>%
  collect() %>%
  mutate(linkenddt = replace_na(linkenddt, Sys.Date()))
ccmxpf_linktable
```

```
## # A tibble: 31,770 x 4
##   permno gvkey  linkdt     linkenddt 
##    <dbl> <chr>  <date>     <date>    
## 1  25881 001000 1970-11-13 1978-06-30
## 2  10015 001001 1983-09-20 1986-07-31
## 3  10023 001002 1972-12-14 1973-06-05
## 4  10031 001003 1983-12-07 1989-08-16
## 5  54594 001004 1972-04-24 2022-02-16
## # ... with 31,765 more rows
```
…
