Tidy Finance - Accessing and Managing Financial Data
…
If we want to have the whole table in memory, we need to collect() it. You will see that we regularly load the data into the memory in the next chapters.

factors_ff_monthly_db |>
  select(month, rf) |>
  collect()

# A tibble: 744 × 2
  month          rf
  <date>      <dbl>
1 1960-01-01 0.0033
2 1960-02-01 0.0029
3 1960-03-01 0.0035
4 1960-04-01 0.0019
5 1960-05-01 0.0027
# … with 739 more rows
…
