Tidy Finance - Size Sorts and p-Hacking
…
p_hacking_results <- p_hacking_setup |>
  mutate(data = map_chr(data, deparse)) |>
  unnest(size_premium) |>
  arrange(desc(size_premium))
p_hacking_results

# A tibble: 48 × 5
  n_portfolios exchanges value_weighted data                  size_…¹
         <dbl> <list>    <lgl>          <chr>                   <dbl>
1           10 <chr [3]> FALSE          "filter(crsp_monthly…  0.0186
2           10 <chr [3]> FALSE          "filter(crsp_monthly…  0.0182
3           10 <chr [3]> FALSE          "crsp_monthly"         0.0163
4           10 <chr [3]> FALSE          "filter(crsp_monthly…  0.0139
5           10 <chr [3]> TRUE           "filter(crsp_monthly…  0.0115
# … with 43 more rows, and abbreviated variable name ¹​size_premium
…
