…
We hand this block to `read.csv()` and label the first (unnamed) column `date`.

``` r
factors_ff3_monthly_raw <- read.csv(text = block, check.names = FALSE)
names(factors_ff3_monthly_raw)[1] <- "date"
factors_ff3_monthly_raw <- as_tibble(factors_ff3_monthly_raw)
factors_ff3_monthly_raw
```

    # A tibble: 1,198 × 5
        date `Mkt-RF`   SMB   HML    RF
       <int>    <dbl> <dbl> <dbl> <dbl>
    1 192607     2.89 -2.55 -2.39  0.22
    2 192608     2.64 -1.14  3.81  0.25
    3 192609     0.38 -1.36  0.05  0.23
    4 192610    -3.27 -0.14  0.82  0.32
    5 192611     2.54 -0.11 -0.61  0.31
    # ℹ 1,193 more rows
…
factors_ff3_monthly <- factors_ff3_monthly_raw |>
  mutate(
    date = floor_date(ymd(str_c(date, "01")), "month"),
    across(-date, as.numeric),
    across(-date, ~ na_if(., -99.99)),
    across(-date, ~ na_if(., -999)),
    across(-date, ~ . / 100)
  ) |>
  rename_with(str_to_lower, -date) |>
  rename(mkt_excess = `mkt-rf`, risk_free = rf) |>
  filter(date >= start_date & date <= end_date)
factors_ff3_monthly
```

    # A tibble: 780 × 5
      date       mkt_excess     smb     hml risk_free
      <date>          <dbl>   <dbl>   <dbl>     <dbl>
    1 1960-01-01    -0.0698  0.0212  0.0265    0.0033
    2 1960-02-01     0.0116  0.006  -0.0197    0.0029
    3 1960-03-01    -0.0163 -0.0055 -0.0275    0.0035
    4 1960-04-01    -0.0171  0.0022 -0.0214    0.0019
    5 1960-05-01     0.0312  0.0129 -0.0373    0.0027
    # ℹ 775 more rows
…
The last line sets the current (latest) price level as the reference price level.

The `tidyfinance` package can, of course, also fetch the same index data and many more data series:

``` r
download_data(
  domain = "fred",
  series = "CPIAUCNS",
  start_date = start_date,
  end_date = end_date
)
```

    # A tibble: 780 × 3
      date       value series  
      <date>     <dbl> <chr>   
    1 1960-01-01  29.3 CPIAUCNS
    2 1960-02-01  29.4 CPIAUCNS
    3 1960-03-01  29.4 CPIAUCNS
    4 1960-04-01  29.5 CPIAUCNS
    5 1960-05-01  29.5 CPIAUCNS
    # ℹ 775 more rows
…
Next, we create a file with the monthly Fama-French factor data. We do so with the function `write_parquet`.

``` r
write_parquet(factors_ff3_monthly, "data-r/factors_ff3_monthly.parquet")
```

You can retrieve the data directly in your memory by calling `read_parquet()`. It is also possible to evaluate `dplyr` calls lazily, i.e., the data is not in our R session’s memory, and the database does most of the work.

``` r
read_parquet("data-r/factors_ff3_monthly.parquet") |>
  select(date, risk_free) |>
  head(10)
```

    # A tibble: 10 × 2
      date       risk_free
      <date>         <dbl>
    1 1960-01-01    0.0033
    2 1960-02-01    0.0029
    3 1960-03-01    0.0035
    4 1960-04-01    0.0019
    5 1960-05-01    0.0027
    # ℹ 5 more rows
…
