Factor Selection via Machine Learning with R – Tidy Finance
…
A table of all available recipe steps can be found in the tidymodels documentation. As of 2025, more than 150 different processing steps are available! One important point: The definition of a recipe does not trigger any calculations yet but rather provides a description of the tasks to be applied. As a result, it is very easy to reuse recipes for different models and thus make sure that the outcomes are comparable as they are based on the same input. In the example above, it does not make a difference whether you use the input data = training(split) or data = testing(split). All that matters at this early stage are the column names and types.

We can apply the recipe to any data with a suitable structure. The code below combines two different functions: prep() estimates the required parameters from a training set that can be applied to other datasets later. bake() applies the processed computations to new data.

data_prep <- prep(rec, training(split))

The object data_prep contains information related to the different preprocessing steps applied to the training data: E.g., it is necessary to compute sample means and standard deviations to center and scale the variables.

data_bake <- bake(data_prep,
  new_data = testing(split)
)
data_bake

# A tibble: 137 × 182
  factor_ff_mkt_excess factor_ff_smb factor_ff_hml factor_ff_rf
                 <dbl>         <dbl>         <dbl>        <dbl>
1               0.0715       -0.932         -0.132        -1.71
2               0.450         0.0768         0.318        -1.67
3               0.489         0.0893         0.421        -1.67
4              -0.477        -0.431          1.10         -1.67
5               0.0693        0.127         -0.413        -1.67
# ℹ 132 more rows
# ℹ 178 more variables: factor_q_risk_free <dbl>,
#   factor_q_mkt_excess <dbl>, factor_q_year <dbl>,
#   factor_q_month <dbl>, factor_q_me <dbl>, factor_q_ia <dbl>,
#   factor_q_roe <dbl>, factor_q_eg <dbl>, macro_dp <dbl>,
#   macro_dy <dbl>, macro_ep <dbl>, macro_de <dbl>,
#   macro_svar <dbl>, macro_bm <dbl>, macro_ntis <dbl>, …
…
For our sample, we consider a time-series cross-validation sample. This means that we tune our models with 20 samples of length five years with a validation period of four years. For a grid of possible hyperparameters, we then fit the model for each fold and evaluate \(\hat{\text{MSPE}}\) in the corresponding validation set. Finally, we select the model specification with the lowest MSPE in the validation set. First, we define the cross-validation folds based on our training data only.

data_folds <- time_series_cv(
  data        = training(split),
  date_var    = date,
  initial     = "5 years",
  assess      = "48 months",
  cumulative  = FALSE,
  slice_limit = 20
)
data_folds

# Time Series Cross Validation Plan 
# A tibble: 20 × 2
  splits          id     
  <list>          <chr>  
1 <split [60/48]> Slice01
2 <split [60/48]> Slice02
3 <split [60/48]> Slice03
4 <split [60/48]> Slice04
5 <split [60/48]> Slice05
# ℹ 15 more rows
…
