…
We can apply the recipe to any data with a suitable structure. The code below combines two different functions: `prep()` estimates the required parameters from a training set that can be applied to other datasets later. `bake()` applies the processed computations to new data.

``` r
data_prep <- prep(rec, training(split))
```

The object `data_prep` contains information related to the different preprocessing steps applied to the training data: E.g., it is necessary to compute sample means and standard deviations to center and scale the variables.

``` r
data_bake <- bake(data_prep, new_data = testing(split))
data_bake
```

    # A tibble: 137 × 154
      factor_ff_mkt_excess factor_ff_smb factor_ff_hml
                     <dbl>         <dbl>         <dbl>
    1               0.0709       -0.940         -0.150
    2               0.448         0.0896         0.296
    3               0.489         0.0738         0.430
    4              -0.478        -0.412          1.09 
    5               0.0688        0.121         -0.426
    # ℹ 132 more rows
    # ℹ 151 more variables: factor_ff_risk_free <dbl>,
    #   factor_q_risk_free <dbl>, factor_q_mkt_excess <dbl>,
    #   factor_q_me <dbl>, factor_q_ia <dbl>, factor_q_roe <dbl>,
    #   factor_q_eg <dbl>, macro_dp <dbl>, macro_dy <dbl>,
    #   macro_ep <dbl>, macro_de <dbl>, macro_svar <dbl>,
    #   macro_bm <dbl>, macro_ntis <dbl>, macro_tbl <dbl>, …
…
``` r
data_folds <- time_series_cv(
  data = training(split),
  date_var = date,
  initial = "5 years",
  assess = "48 months",
  cumulative = FALSE,
  slice_limit = 20
)
data_folds
```

    # Time Series Cross Validation Plan 
    # A tibble: 20 × 2
      splits          id     
      <list>          <chr>  
    1 <split [60/48]> Slice01
    2 <split [60/48]> Slice02
    3 <split [60/48]> Slice03
    4 <split [60/48]> Slice04
    5 <split [60/48]> Slice05
    # ℹ 15 more rows
…
