Introduction to Tidy Finance with R
…
library(tidyverse)
library(tidyquant)
library(scales)

We first download daily prices for one stock symbol, e.g., the Apple stock, AAPL, directly from the data provider Yahoo!Finance. To download the data, you can use the command tq_get. If you do not know how to use it, make sure you read the help file by calling ?tq_get. We especially recommend taking a look at the examples section of the documentation. We request daily data for a period of more than 20 years.

prices <- tq_get("AAPL",
  get = "stock.prices",
  from = "2000-01-01",
  to = "2022-12-31"
)
prices

# A tibble: 5,787 × 8
  symbol date        open  high   low close    volume adjusted
  <chr>  <date>     <dbl> <dbl> <dbl> <dbl>     <dbl>    <dbl>
1 AAPL   2000-01-03 0.936 1.00  0.908 0.999 535796800    0.848
2 AAPL   2000-01-04 0.967 0.988 0.903 0.915 512377600    0.777
3 AAPL   2000-01-05 0.926 0.987 0.920 0.929 778321600    0.788
4 AAPL   2000-01-06 0.948 0.955 0.848 0.848 767972800    0.720
5 AAPL   2000-01-07 0.862 0.902 0.853 0.888 460734400    0.754
# ℹ 5,782 more rows
…
Figure 1: Prices are in USD, adjusted for dividend payments and stock splits.

 Instead of analyzing prices, we compute daily net returns defined as \(r_t = p_t / p_{t-1} - 1\), where \(p_t\) is the adjusted day \(t\) price. In that context, the function lag() is helpful, which returns the previous value in a vector.

returns <- prices |>
  arrange(date) |>
  mutate(ret = adjusted / lag(adjusted) - 1) |>
  select(symbol, date, ret)
returns

# A tibble: 5,787 × 3
  symbol date           ret
  <chr>  <date>       <dbl>
1 AAPL   2000-01-03 NA     
2 AAPL   2000-01-04 -0.0843
3 AAPL   2000-01-05  0.0146
4 AAPL   2000-01-06 -0.0865
5 AAPL   2000-01-07  0.0474
# ℹ 5,782 more rows
…
In case you wonder: the additional argument .names = "{.fn}" in across() determines how to name the output columns. The specification is rather flexible and allows almost arbitrary column names, which can be useful for reporting. The print() function simply controls the output options for the R console.

Scaling Up the Analysis

As a next step, we generalize the code from before such that all the computations can handle an arbitrary vector of symbols (e.g., all constituents of an index). Following tidy principles, it is quite easy to download the data, plot the price time series, and tabulate the summary statistics for an arbitrary number of assets.

This is where the tidyverse magic starts: tidy data makes it extremely easy to generalize the computations from before to as many assets as you like. The following code takes any vector of symbols, e.g., symbol <- c("AAPL", "MMM", "BA"), and automates the download as well as the plot of the price time series. In the end, we create the table of summary statistics for an arbitrary number of assets. We perform the analysis with data from all current constituents of the Dow Jones Industrial Average index. 

symbols <- tq_index("DOW") |> 
  filter(company != "US DOLLAR")
symbols

# A tibble: 30 × 8
  symbol company           identifier sedol weight sector shares_held
  <chr>  <chr>             <chr>      <chr>  <dbl> <chr>        <dbl>
1 UNH    UNITEDHEALTH GRO… 91324P102  2917… 0.106  -          5487702
2 MSFT   MICROSOFT CORP    594918104  2588… 0.0641 -          5487702
3 GS     GOLDMAN SACHS GR… 38141G104  2407… 0.0605 -          5487702
4 HD     HOME DEPOT INC    437076102  2434… 0.0571 -          5487702
5 AMGN   AMGEN INC         031162100  2023… 0.0556 -          5487702
# ℹ 25 more rows
# ℹ 1 more variable: local_currency <chr>
…
