Modern Portfolio Theory with R – Tidy Finance
…
prices_daily

Then, we proceed to calculate daily returns for each asset.

returns_daily <- prices_daily |>
  group_by(symbol) |> 
  mutate(ret = price / lag(price) - 1) |>
  ungroup() |> 
  select(symbol, date, ret) |> 
  drop_na(ret) |> 
  arrange(symbol, date)

returns_daily 

# A tibble: 37,680 × 3
  symbol date           ret
  <chr>  <date>       <dbl>
1 AAPL   2019-08-02 -0.0212
2 AAPL   2019-08-05 -0.0523
3 AAPL   2019-08-06  0.0189
4 AAPL   2019-08-07  0.0104
5 AAPL   2019-08-08  0.0221
# ℹ 37,675 more rows
…
