Working with Stock Returns in R – Tidy Finance
…
Downloading Data

We first download daily prices for one stock symbol, e.g., the Apple stock (AAPL), directly from the data provider Yahoo Finance. To download the data, you can use the function download_data. In case this is the first time you use the package tidyfinance, you may be asked once to install some additional packages in the process of downloading the data. If you do not know how to use it, make sure you read the help file by calling ?download_data. We especially recommend taking a look at the examples section of the documentation.

In the following code, we request daily data from the beginning of 2000 to the end of the last year, which is a period of more than 20 years.

prices <- download_data(
  type = "stock_prices",
  symbols = "AAPL",
  start_date = "2000-01-01",
  end_date = "2024-12-31"
)
prices

# A tibble: 6,288 × 8
  symbol date          volume  open   low  high close adjusted_close
  <chr>  <date>         <dbl> <dbl> <dbl> <dbl> <dbl>          <dbl>
1 AAPL   2000-01-03 535796800 0.936 0.908 1.00  0.999          0.840
2 AAPL   2000-01-04 512377600 0.967 0.903 0.988 0.915          0.769
3 AAPL   2000-01-05 778321600 0.926 0.920 0.987 0.929          0.781
4 AAPL   2000-01-06 767972800 0.948 0.848 0.955 0.848          0.713
5 AAPL   2000-01-07 460734400 0.862 0.853 0.902 0.888          0.747
# ℹ 6,283 more rows
…
Figure 1: Prices are in USD, adjusted for dividend payments and stock splits.

Computing Returns

Instead of analyzing prices, we compute daily returns defined as \(r_t = p_t / p_{t-1} - 1\), where \(p_t\) is the adjusted price at the end of day \(t\). In that context, the function lag() is helpful by returning the previous value.

returns <- prices |>
  arrange(date) |>
  mutate(ret = adjusted_close / lag(adjusted_close) - 1) |>
  select(symbol, date, ret)
returns

# A tibble: 6,288 × 3
  symbol date           ret
  <chr>  <date>       <dbl>
1 AAPL   2000-01-03 NA     
2 AAPL   2000-01-04 -0.0843
3 AAPL   2000-01-05  0.0146
4 AAPL   2000-01-06 -0.0865
5 AAPL   2000-01-07  0.0474
# ℹ 6,283 more rows
…
In case you wonder, the additional argument .names = "{.fn}" in across() determines how to name the output columns. It acts as a placeholder that gets replaced by the name of the function being applied (e.g., mean, sd, min, max) when creating new column names. The specification is rather flexible and allows almost arbitrary column names, which can be useful for reporting. The print() function controls the R console’s output options.

Scaling Up the Analysis

As a next step, we generalize the previous code so that all computations can handle an arbitrary number of symbols (e.g., all constituents of an index). Following tidy principles, it is quite easy to download the data, plot the price time series, and tabulate the summary statistics for an arbitrary number of assets.

This is where the tidyverse magic starts: Tidy data makes it extremely easy to generalize the computations from before to as many assets or groups as you like. The following code takes any number of symbols, e.g., symbol <- c("AAPL", "MMM", "BA"), and automates the download as well as the plot of the price time series. In the end, we create the table of summary statistics for all assets at once. For this example, we analyze data from all current constituents of the Dow Jones Industrial Average index.

symbols <- download_data(
  type = "constituents", 
  index = "Dow Jones Industrial Average"
) 
symbols

# A tibble: 30 × 5
  symbol name                    location           exchange currency
  <chr>  <chr>                   <chr>              <chr>    <chr>   
1 GS     GOLDMAN SACHS GROUP INC Vereinigte Staaten New Yor… USD     
2 MSFT   MICROSOFT CORP          Vereinigte Staaten NASDAQ   USD     
3 CAT    CATERPILLAR INC         Vereinigte Staaten New Yor… USD     
4 HD     HOME DEPOT INC          Vereinigte Staaten New Yor… USD     
5 SHW    SHERWIN WILLIAMS        Vereinigte Staaten New Yor… USD     
# ℹ 25 more rows
…
