…
```r
library(tidyverse)
library(tidyquant)
```

We first download daily prices for one stock market ticker, e.g., *AAPL*, directly from the data provider Yahoo!Finance. To download the data, you can use the command `tq_get`. If you do not know how to use it, make sure you read the help file by calling `?tq_get`. We especially recommend taking a look at the documentation's examples section. 


```r
prices <- tq_get("AAPL", get = "stock.prices")
prices
```

```
## # A tibble: 2,542 x 8
##   symbol date        open  high   low close    volume adjusted
##   <chr>  <date>     <dbl> <dbl> <dbl> <dbl>     <dbl>    <dbl>
## 1 AAPL   2012-01-03  14.6  14.7  14.6  14.7 302220800     12.6
## 2 AAPL   2012-01-04  14.6  14.8  14.6  14.8 260022000     12.6
## 3 AAPL   2012-01-05  14.8  14.9  14.7  14.9 271269600     12.8
## 4 AAPL   2012-01-06  15.0  15.1  15.0  15.1 318292800     12.9
## # ... with 2,538 more rows
```
…
<img src="10_introduction_files/figure-html/unnamed-chunk-3-1.png" width="672" style="display: block; margin: auto;" />

Next, we compute daily returns defined as $(p_t - p_{t-1}) / p_{t-1}$ where $p_t$ is the adjusted day $t$ price. The function `lag` works well here, but can be trickier when applied to multiple assets at once. 


```r
returns <- prices %>%
  arrange(date) %>%
  mutate(ret = (adjusted / lag(adjusted) - 1)) %>%
  select(symbol, date, ret)
returns %>% head()
```

```
## # A tibble: 6 x 3
##   symbol date            ret
##   <chr>  <date>        <dbl>
## 1 AAPL   2012-01-03 NA      
## 2 AAPL   2012-01-04  0.00537
## 3 AAPL   2012-01-05  0.0111 
## 4 AAPL   2012-01-06  0.0105 
## # ... with 2 more rows
```
…
