…
```r
ccmxpf_linktable <- ccmxpf_linktable_db |>
  filter(linktype %in% c("LU", "LC") &
    linkprim %in% c("P", "C") &
    usedflag == 1) |>
  select(permno = lpermno, gvkey, linkdt, linkenddt) |>
  collect() |>
  mutate(linkenddt = replace_na(linkenddt, Sys.Date()))
ccmxpf_linktable
```

```
## # A tibble: 31,770 × 4
##   permno gvkey  linkdt     linkenddt 
##    <dbl> <chr>  <date>     <date>    
## 1  25881 001000 1970-11-13 1978-06-30
## 2  10015 001001 1983-09-20 1986-07-31
## 3  10023 001002 1972-12-14 1973-06-05
## 4  10031 001003 1983-12-07 1989-08-16
## 5  54594 001004 1972-04-24 2022-07-15
## # … with 31,765 more rows
```
…
