…
```r
beta_example <- crsp_monthly |>
  filter(permno == examples$permno[1]) |>
  mutate(roll_capm_estimation(cur_data(), months = 60, min_obs = 48)) |>
  drop_na()
beta_example
```

```
# A tibble: 445 × 6
  permno month      industry      ret_excess mkt_excess  beta
   <dbl> <date>     <chr>              <dbl>      <dbl> <dbl>
1  14593 1984-12-01 Manufacturing     0.170      0.0184  2.05
2  14593 1985-01-01 Manufacturing    -0.0108     0.0799  1.90
3  14593 1985-02-01 Manufacturing    -0.152      0.0122  1.88
4  14593 1985-03-01 Manufacturing    -0.112     -0.0084  1.89
5  14593 1985-04-01 Manufacturing    -0.0467    -0.0096  1.90
# … with 440 more rows
```
…
First, we `nest()` the data by `permno`. Nested data means we now have a list of `permno` with corresponding time series data and an `industry` label. We get one row of output for each unique combination of non-nested variables which are `permno` and `industry`.\index{Data!Nested}


```r
crsp_monthly_nested <- crsp_monthly |>
  nest(data = c(month, ret_excess, mkt_excess))
crsp_monthly_nested
```

```
# A tibble: 30,071 × 3
  permno industry      data              
   <dbl> <chr>         <list>            
1  10000 Manufacturing <tibble [16 × 3]> 
2  10001 Utilities     <tibble [378 × 3]>
3  10002 Finance       <tibble [324 × 3]>
4  10003 Finance       <tibble [118 × 3]>
5  10005 Mining        <tibble [65 × 3]> 
# … with 30,066 more rows
```
…
```r
crsp_monthly_nested |>
  inner_join(examples, by = "permno") |>
  mutate(beta = map(
    data,
    ~ roll_capm_estimation(., months = 60, min_obs = 48)
  )) |>
  unnest(beta) |>
  select(permno, month, beta_monthly = beta) |>
  drop_na()
```

```
# A tibble: 1,410 × 3
  permno month      beta_monthly
   <dbl> <date>            <dbl>
1  10107 1990-03-01         1.39
2  10107 1990-04-01         1.38
3  10107 1990-05-01         1.43
4  10107 1990-06-01         1.43
5  10107 1990-07-01         1.45
# … with 1,405 more rows
```
…
```r
crsp_daily_nested |>
  inner_join(examples, by = "permno") |>
  mutate(beta_daily = map(
    data,
    ~ roll_capm_estimation(., months = 3, min_obs = 50)
  )) |>
  unnest(c(beta_daily)) |>
  select(permno, month, beta_daily = beta) |>
  drop_na()
```

```
# A tibble: 1,591 × 3
  permno month      beta_daily
   <dbl> <date>          <dbl>
1  10107 1986-05-01      0.898
2  10107 1986-06-01      0.906
3  10107 1986-07-01      0.822
4  10107 1986-08-01      0.900
5  10107 1986-09-01      1.01 
# … with 1,586 more rows
```
…
