…
beta <- tbl(tidy_finance, "beta") %>% 
  collect()
```
We keep only relevant data from the CRSP sample.

```r
crsp_monthly <- crsp_monthly %>% 
  left_join(factors_ff_monthly, by = "month") %>% 
  select(permno, month, ret_excess, mkt_excess, mktcap_lag)
crsp_monthly
```

```
## # A tibble: 3,225,253 x 5
##    permno month      ret_excess mkt_excess mktcap_lag
##     <dbl> <date>          <dbl>      <dbl>      <dbl>
##  1  10043 1989-06-01    -0.0071    -0.0135      31.0 
##  2  10000 1986-02-01    -0.262      0.0713      16.1 
##  3  10000 1986-03-01     0.359      0.0488      12.0 
##  4  10000 1986-04-01    -0.104     -0.0131      16.3 
##  5  10000 1986-05-01    -0.228      0.0462      15.2 
##  6  10000 1986-06-01    -0.0102     0.0103      11.8 
##  7  10000 1986-07-01    -0.0860    -0.0645      11.7 
##  8  10000 1986-08-01    -0.620      0.0607      10.8 
##  9  10000 1986-09-01    -0.0616    -0.086        4.15
## 10  10000 1986-10-01    -0.247      0.0466       3.91
## # ... with 3,225,243 more rows
```
…
