…
```r
p_hacking_setup <- expand_grid(
  n_portfolios = c(2, 5, 10),
  exchanges = c("NYSE", "NYSE|NASDAQ|AMEX"),
  value_weighted = c(TRUE, FALSE),
  data = rlang::parse_exprs('crsp_monthly; crsp_monthly %>% filter(industry != "Finance");
                             crsp_monthly %>% filter(month < "1990-06-01");
                             crsp_monthly %>% filter(month >="1990-06-01")'))
p_hacking_setup
```

```
## # A tibble: 48 x 4
##    n_portfolios exchanges        value_weighted data      
##           <dbl> <chr>            <lgl>          <list>    
##  1            2 NYSE             TRUE           <sym>     
##  2            2 NYSE             TRUE           <language>
##  3            2 NYSE             TRUE           <language>
##  4            2 NYSE             TRUE           <language>
##  5            2 NYSE             FALSE          <sym>     
##  6            2 NYSE             FALSE          <language>
##  7            2 NYSE             FALSE          <language>
##  8            2 NYSE             FALSE          <language>
##  9            2 NYSE|NASDAQ|AMEX TRUE           <sym>     
## 10            2 NYSE|NASDAQ|AMEX TRUE           <language>
## # ... with 38 more rows
```
…
```
## # A tibble: 48 x 5
##    n_portfolios exchanges        value_weighted data                size_premium
##           <dbl> <chr>            <lgl>          <chr>                      <dbl>
##  1           10 NYSE|NASDAQ|AMEX FALSE          "crsp_monthly %>% ~      0.0184 
##  2           10 NYSE|NASDAQ|AMEX FALSE          "crsp_monthly %>% ~      0.0180 
##  3           10 NYSE|NASDAQ|AMEX FALSE          "crsp_monthly"           0.0162 
##  4           10 NYSE|NASDAQ|AMEX FALSE          "crsp_monthly %>% ~      0.0139 
##  5           10 NYSE|NASDAQ|AMEX TRUE           "crsp_monthly %>% ~      0.0114 
##  6           10 NYSE|NASDAQ|AMEX TRUE           "crsp_monthly %>% ~      0.0109 
##  7           10 NYSE|NASDAQ|AMEX TRUE           "crsp_monthly"           0.0103 
##  8           10 NYSE|NASDAQ|AMEX TRUE           "crsp_monthly %>% ~      0.00964
##  9            5 NYSE|NASDAQ|AMEX FALSE          "crsp_monthly %>% ~      0.00914
## 10            5 NYSE|NASDAQ|AMEX FALSE          "crsp_monthly %>% ~      0.00883
## # ... with 38 more rows
```
…
