…
```r
data %>%
  group_by(industry) %>%
  mutate(ret = 100 * ret) %>%
  summarise(
    mean = mean(12 * ret),
    sd = sqrt(12) * sd(ret),
    min_monthly = min(ret),
    median = median(12 * ret),
    max_monthly = max(ret)
  )
```

```
## # A tibble: 10 x 6
##   industry  mean    sd min_monthly median max_monthly
##   <fct>    <dbl> <dbl>       <dbl>  <dbl>       <dbl>
## 1 NoDur     8.40  15.0       -21.6   9.24        18.3
## 2 Durbl     7.62  23.8       -33.0   6.48        45.3
## 3 Manuf     7.35  17.5       -28.0  10.9         17.3
## 4 Enrgy     6.60  20.8       -34.6   7.2         32.4
## 5 HiTec     8.19  22.6       -26.5   9.84        20.3
## # ... with 5 more rows
```
…
A table of all available recipe steps can be found [here](https://www.tidymodels.org/find/recipes/). As of 2022, more than 100 different processing steps are available! One important point: The definition of a recipe does not trigger any calculations yet but rather provides a *description* of the tasks to be applied. As a result, it is very easy to *reuse* recipes for different models and thus make sure that the outcomes are comparable as they are based on the same input. 
In the example above, it does not make a difference whether you use the input `data = training(split)` or `data = testing(split)`. 
All that matters at this early stage are the column names and types.

We can apply the recipe to any data with a suitable structure. The code below combines two different functions: `prep` estimates the required parameters from a training set that can be applied to other data sets later. `bake` applies the processed computations to new data.


```r
tmp_data <- bake(prep(rec, training(split)), new_data = testing(split))
tmp_data
```

```
## # A tibble: 130 x 126
##   factor_ff_rf factor_ff_mkt_excess factor_ff_smb factor_ff_hml factor_q_me
##          <dbl>                <dbl>         <dbl>         <dbl>       <dbl>
## 1        -1.92                0.644        0.298          0.947      0.371 
## 2        -1.88                1.27         0.387          0.607      0.527 
## 3        -1.88                0.341        1.43           0.836      1.12  
## 4        -1.88               -1.80        -0.0411        -0.963     -0.0921
## 5        -1.88               -1.29        -0.627         -1.73      -0.850 
## # ... with 125 more rows, and 121 more variables: factor_q_ia <dbl>,
## #   factor_q_roe <dbl>, factor_q_eg <dbl>, macro_dp <dbl>, macro_dy <dbl>,
## #   macro_ep <dbl>, macro_de <dbl>, macro_svar <dbl>, macro_bm <dbl>,
## #   macro_ntis <dbl>, macro_tbl <dbl>, macro_lty <dbl>, macro_ltr <dbl>,
## #   macro_tms <dbl>, macro_dfy <dbl>, macro_infl <dbl>, ret <dbl>,
## #   factor_ff_rf_x_macro_dp <dbl>, factor_ff_rf_x_macro_dy <dbl>,
## #   factor_ff_rf_x_macro_ep <dbl>, factor_ff_rf_x_macro_de <dbl>, ...
```
…
