…
```r
data_prep <- prep(rec, training(split))
```
The object `data_prep` contains information related to the different preprocessing steps applied to the training data: E.g., it is necessary to compute sample means and standard deviations to center and scale the variables. 


```r
data_bake <- bake(data_prep, 
                 new_data = testing(split))
data_bake
```

```
# A tibble: 130 × 126
  facto…¹ facto…² facto…³ facto…⁴ facto…⁵ facto…⁶ facto…⁷ facto…⁸ macro…⁹ macro…˟
    <dbl>   <dbl>   <dbl>   <dbl>   <dbl>   <dbl>   <dbl>   <dbl>   <dbl>   <dbl>
1   -1.92   0.644  0.298    0.947  0.371    0.162  -0.623  -0.756  -0.827  -0.772
2   -1.88   1.27   0.387    0.607  0.527    0.582  -0.422  -1.38   -0.978  -0.855
3   -1.88   0.341  1.43     0.836  1.12     1.35   -1.17   -1.72   -1.01   -0.984
4   -1.88  -1.80  -0.0411  -0.963 -0.0921  -0.462   0.809   0.428  -0.803  -1.01 
5   -1.88  -1.29  -0.627   -1.73  -0.850   -1.50    0.279   0.532  -0.669  -0.809
# … with 125 more rows, 116 more variables: macro_ep <dbl>, macro_de <dbl>,
#   macro_svar <dbl>, macro_bm <dbl>, macro_ntis <dbl>, macro_tbl <dbl>,
#   macro_lty <dbl>, macro_ltr <dbl>, macro_tms <dbl>, macro_dfy <dbl>,
#   macro_infl <dbl>, ret <dbl>, factor_ff_rf_x_macro_dp <dbl>,
#   factor_ff_rf_x_macro_dy <dbl>, factor_ff_rf_x_macro_ep <dbl>,
#   factor_ff_rf_x_macro_de <dbl>, factor_ff_rf_x_macro_svar <dbl>,
#   factor_ff_rf_x_macro_bm <dbl>, factor_ff_rf_x_macro_ntis <dbl>, …
```
…
data_folds
```

```
# Time Series Cross Validation Plan 
# A tibble: 20 × 2
  splits          id     
  <list>          <chr>  
1 <split [60/48]> Slice01
2 <split [60/48]> Slice02
3 <split [60/48]> Slice03
4 <split [60/48]> Slice04
5 <split [60/48]> Slice05
# … with 15 more rows
```
…
