…
Let's take a look at the different portfolio strategies and evaluation measures.

```r
evaluate_portfolio(weights_crsp)
```

```
## # A tibble: 11 x 3
##   measure          benchmark      tilt
##   <chr>                <dbl>     <dbl>
## 1 Expected utility    -0.249 -0.261   
## 2 Average return       6.86  -0.0509  
## 3 SD return           15.3   20.2     
## 4 Sharpe ratio         0.129 -0.000726
## # ... with 7 more rows
```
…
