Chapter 3 Accessing & Managing Financial Data | Tidy Finance
…
If we want to have the whole table in memory, then we need to collect() it.

factors_ff_monthly_db %>%
  select(month, rf) %>%
  collect()

## # A tibble: 732 x 2
##   month          rf
##   <date>      <dbl>
## 1 1960-01-01 0.0033
## 2 1960-02-01 0.0029
## 3 1960-03-01 0.0035
## 4 1960-04-01 0.0019
## # ... with 728 more rows
…
ccmxpf_linktable_db <- tbl(wrds, "ccmxpf_linktable")

However, we need to make sure that we keep only relevant links, again following the description outlined in BEM.

ccmxpf_linktable <- ccmxpf_linktable_db %>%
  filter(linktype %in% c("LU", "LC") &
    linkprim %in% c("P", "C") &
    usedflag == 1) %>%
  select(permno = lpermno, gvkey, linkdt, linkenddt) %>%
  collect() %>%
  # Currently active links have no end date
  mutate(linkenddt = replace_na(linkenddt, Sys.Date()))
ccmxpf_linktable

## # A tibble: 30,159 x 4
##   permno gvkey  linkdt     linkenddt 
##    <dbl> <chr>  <date>     <date>    
## 1  25881 001000 1970-11-13 1978-06-30
## 2  10015 001001 1983-09-20 1986-07-31
## 3  10023 001002 1972-12-14 1973-06-05
## 4  10031 001003 1983-12-07 1989-08-16
## # ... with 30,155 more rows
…
