Chapter 5 Estimating beta using daily returns | Tidy Finance
…
We also need daily Fama-French market excess returns.

factors_ff_daily <- tbl(tidy_finance, "factors_ff_daily") %>%
  collect()

We make sure to keep only relevant data.

crsp_daily <- crsp_daily %>%
  inner_join(factors_ff_daily, by = "date") %>%
  select(permno, month, ret_excess, mkt_excess)
crsp_daily

## # A tibble: 68,895,667 x 4
##    permno month      ret_excess mkt_excess
##     <dbl> <date>          <dbl>      <dbl>
##  1  10000 1986-01-01   -0.0246     -0.0216
##  2  10000 1986-01-01   -0.00025    -0.0117
##  3  10000 1986-01-01   -0.00025    -0.0002
##  4  10000 1986-01-01    0.0498      0.0028
##  5  10000 1986-01-01    0.0474      0.0001
##  6  10000 1986-01-01    0.0452      0.0079
##  7  10000 1986-01-01    0.0432      0.0046
##  8  10000 1986-01-01   -0.00025    -0.0017
##  9  10000 1986-01-01   -0.00025    -0.0039
## 10  10000 1986-01-01   -0.00025    -0.0067
## # ... with 68,895,657 more rows
Just like above, we nest the data by permno for easy parallelization.

crsp_daily_nested <- crsp_daily %>%
  nest(data = c(month, ret_excess, mkt_excess))

This is what the estimation looks like for a couple of examples using map().

crsp_daily_nested %>%
  inner_join(examples, by = "permno") %>%
  mutate(beta_daily = map(data, ~ roll_capm_estimation(., months = 3, min_obs = 50))) %>%
  unnest(c(beta_daily)) %>%
  select(permno, month, beta_daily = beta) %>%
  drop_na()

## # A tibble: 1,543 x 3
##    permno month      beta_daily
##     <dbl> <date>          <dbl>
##  1  10107 1986-05-01      0.898
##  2  10107 1986-06-01      0.906
##  3  10107 1986-07-01      0.822
##  4  10107 1986-08-01      0.900
##  5  10107 1986-09-01      1.01 
##  6  10107 1986-10-01      1.03 
##  7  10107 1986-11-01      1.58 
##  8  10107 1986-12-01      1.64 
##  9  10107 1987-01-01      2.38 
## 10  10107 1987-02-01      1.51 
## # ... with 1,533 more rows

Just for safety and the sake of completeness, we tell our session again to use multiple sessions for parallelization.

plan(multisession, workers = availableCores())

The code chunk for beta estimation using daily returns now looks very similar to the one for monthly data. Note that we now used only 3 months of daily data and require at least 50 observations to reduce the likelihood of whack estimates. The whole estimation takes around 30 mins using 8 cores and 32gb memory.

beta_daily <- crsp_daily_nested %>%
  mutate(beta_daily = future_map(data, ~ roll_capm_estimation(., months = 3, min_obs = 50))) %>%
  unnest(c(beta_daily)) %>%
  select(permno, month, beta_daily = beta) %>%
  drop_na()
beta_daily

## # A tibble: 3,231,788 x 3
##    permno month      beta_daily
##     <dbl> <date>          <dbl>
##  1  10000 1986-03-01    0.603  
##  2  10000 1986-04-01    0.00754
##  3  10000 1986-05-01   -0.0514 
##  4  10000 1986-06-01    0.0242 
##  5  10000 1986-07-01    0.543  
##  6  10000 1986-08-01    0.557  
##  7  10000 1986-09-01    0.614  
##  8  10000 1986-10-01    0.891  
##  9  10000 1986-11-01    0.970  
## 10  10000 1986-12-01    0.749  
## # ... with 3,231,778 more rows
…
