Chapter 9 Factor selection via machine learning | Tidy Finance
…
A table of all available recipe steps can be found here. As of format(Sys.Date(), "%Y"), more than 100 different processing steps are available! One important point: the definition of a recipe does not imply any calculations yet but rather provides a description of the tasks which are applied later. As a result, it is very easy to reuse recipes for different models and thus make sure that the outcomes are comparable as they are based on the same input.
In the example above, it does not make a difference whether the input data = training(split) or data = testing(split) is used.
All that matters at this early stage are the column names and types.

We can apply the recipe to any data with suitable structure. The code below combines two different functions: prep estimates the required parameters from a training set that can be later applied to other data sets. bake applies the processed computations to new data.

tmp_data <- bake(prep(rec, training(split)), new_data = testing(split))
tmp_data

## # A tibble: 130 x 126
##    factor_ff_rf factor_ff_mkt_excess factor_ff_smb factor_ff_hml factor_q_me
##           <dbl>                <dbl>         <dbl>         <dbl>       <dbl>
##  1        -1.92               0.644        0.298           0.947      0.371 
##  2        -1.88               1.27         0.387           0.607      0.527 
##  3        -1.88               0.341        1.43            0.836      1.12  
##  4        -1.88              -1.80        -0.0411         -0.963     -0.0921
##  5        -1.88              -1.29        -0.627          -1.73      -0.850 
##  6        -1.88               1.41         0.00517        -0.240      0.0440
##  7        -1.88              -1.12        -0.978          -0.801     -1.25  
##  8        -1.88               1.97         1.15           -1.21       1.13  
##  9        -1.88               0.747        0.304          -0.979      0.109 
## 10        -1.88               0.0387       1.09           -0.436      1.04  
## # ... with 120 more rows, and 121 more variables: factor_q_ia <dbl>,
## #   factor_q_roe <dbl>, factor_q_eg <dbl>, macro_dp <dbl>, macro_dy <dbl>,
## #   macro_ep <dbl>, macro_de <dbl>, macro_svar <dbl>, macro_bm <dbl>,
## #   macro_ntis <dbl>, macro_tbl <dbl>, macro_lty <dbl>, macro_ltr <dbl>,
## #   macro_tms <dbl>, macro_dfy <dbl>, macro_infl <dbl>, ret <dbl>,
## #   factor_ff_rf_x_macro_dp <dbl>, factor_ff_rf_x_macro_dy <dbl>,
## #   factor_ff_rf_x_macro_ep <dbl>, factor_ff_rf_x_macro_de <dbl>, ...
…
