Chapter 5 Size sorts and p-hacking | Tidy Finance with R
…
Nevertheless, the multitude of options creates a problem since there is no single correct way of sorting portfolios. How should a researcher convince a reader that their results do not come from a p-hacking exercise? To circumvent this dilemma, academics are encouraged to present evidence from different sorting schemes as robustness tests and report multiple approaches to show that a result does not depend on a single choice. Thus, the robustness of premiums is a key feature.

Below we conduct a series of robustness tests which could also be interpreted as a p-hacking exercise. To do so, we examine the size premium in different specifications presented in the table p_hacking_setup. The function expand_grid() produces a table of all possible permutations of its arguments. Notice that we use the argument data to exclude financial firms and truncate the time series.

p_hacking_setup <- expand_grid(
  n_portfolios = c(2, 5, 10),
  exchanges = c("NYSE", "NYSE|NASDAQ|AMEX"),
  value_weighted = c(TRUE, FALSE),
  data = rlang::parse_exprs('crsp_monthly; crsp_monthly %>% filter(industry != "Finance");
                             crsp_monthly %>% filter(month < "1990-06-01");
                             crsp_monthly %>% filter(month >="1990-06-01")')
)
p_hacking_setup

## # A tibble: 48 x 4
##   n_portfolios exchanges value_weighted data      
##          <dbl> <chr>     <lgl>          <list>    
## 1            2 NYSE      TRUE           <sym>     
## 2            2 NYSE      TRUE           <language>
## 3            2 NYSE      TRUE           <language>
## 4            2 NYSE      TRUE           <language>
## 5            2 NYSE      FALSE          <sym>     
## # ... with 43 more rows
…
p_hacking_results <- p_hacking_setup %>%
  mutate(data = map_chr(data, deparse)) %>%
  unnest(size_premium) %>%
  mutate(data = str_remove(data, "crsp_monthly %>% ")) %>%
  arrange(desc(size_premium))
p_hacking_results

## # A tibble: 48 x 5
##   n_portfolios exchanges        value_weighted data                  size_premium
##          <dbl> <chr>            <lgl>          <chr>                        <dbl>
## 1           10 NYSE|NASDAQ|AMEX FALSE          "filter(month >= \"1~       0.0184
## 2           10 NYSE|NASDAQ|AMEX FALSE          "filter(industry != ~       0.0180
## 3           10 NYSE|NASDAQ|AMEX FALSE          "crsp_monthly"              0.0162
## 4           10 NYSE|NASDAQ|AMEX FALSE          "filter(month < \"19~       0.0139
## 5           10 NYSE|NASDAQ|AMEX TRUE           "filter(industry != ~       0.0114
## # ... with 43 more rows
…
