Chapter 5 Univariate Sorts | Tidy Finance
…
factors_ff_monthly <- tbl(tidy_finance, "factors_ff_monthly") %>% 
  collect()

beta <- tbl(tidy_finance, "beta") %>% 
  collect()

We keep only relevant data from the CRSP sample.

crsp_monthly <- crsp_monthly %>% 
  left_join(factors_ff_monthly, by = "month") %>% 
  select(permno, month, ret_excess, mkt_excess, mktcap_lag)
crsp_monthly

## # A tibble: 3,225,253 x 5
##    permno month      ret_excess mkt_excess mktcap_lag
##     <dbl> <date>          <dbl>      <dbl>      <dbl>
##  1  10043 1989-06-01   -0.0071     -0.0135       31.0
##  2  10043 1989-07-01    0.0269      0.072        31.0
##  3  10043 1989-08-01   -0.0238      0.0144       32.1
##  4  10043 1989-09-01   -0.0648     -0.0076       31.6
##  5  10043 1989-10-01    0.00205    -0.0367       29.8
##  6  10043 1989-11-01   -0.130       0.0103       30.1
##  7  10043 1989-12-01    0.0239      0.0116       26.4
##  8  10043 1990-01-01   -0.112      -0.0785       27.3
##  9  10043 1990-02-01   -0.0927      0.0111       24.4
## 10  10043 1990-03-01    0.0807      0.0183       22.2
## # ... with 3,225,243 more rows
…
