Chapter 4 Univariate portfolio sorts | Tidy Finance with R
…
factors_ff_monthly <- tbl(tidy_finance, "factors_ff_monthly") %>%
  collect()

beta <- tbl(tidy_finance, "beta") %>%
  collect()

We keep only relevant data from the CRSP sample.

crsp_monthly <- crsp_monthly %>%
  left_join(factors_ff_monthly, by = "month") %>%
  select(permno, month, ret_excess, mkt_excess, mktcap_lag)
crsp_monthly

## # A tibble: 3,225,161 x 5
##   permno month      ret_excess mkt_excess mktcap_lag
##    <dbl> <date>          <dbl>      <dbl>      <dbl>
## 1  10000 1986-02-01    -0.262      0.0713       16.1
## 2  10000 1986-03-01     0.359      0.0488       12.0
## 3  10000 1986-04-01    -0.104     -0.0131       16.3
## 4  10000 1986-05-01    -0.228      0.0462       15.2
## 5  10000 1986-06-01    -0.0102     0.0103       11.8
## # ... with 3,225,156 more rows
…
