Construction of a Historical S&P 500 Total Return Index – Tidy Finance
…
Finally, let us combine (i) the actual S&P 500 Total Return Index from 1988 until 2023, (ii) the simulated S&P 500 total return index before 1988, and (iii) the S&P 500 price index from 1928 until 2023.

sp500_monthly <- sp500_recent|>
  bind_rows(sp500_historical |>
              filter(month < min(sp500_recent$month))  |>
              select(month, total_return_index)) |>
  full_join(sp500_price_index |> 
              select(month, price_index), by = "month") |>
  filter(month >= "1928-01-01")  |>
  arrange(month)
sp500_monthly

# A tibble: 1,141 × 3
  month      total_return_index price_index
  <date>                  <dbl>       <dbl>
1 1928-01-31               1.20        17.6
2 1928-02-29               1.21        17.3
3 1928-03-31               1.20        19.3
4 1928-04-30               1.26        19.8
5 1928-05-31               1.35        20  
# ℹ 1,136 more rows
…
